<svg width="60" height="60" viewBox="0 0 60 60" fill="none" xmlns="http://www.w3.org/2000/svg">
<circle cx="30" cy="30" r="30" fill="#F0F3F8"/>
<rect x="28.831" y="20" width="1.28451" height="19.2676" rx="0.642254" fill="#606877"/>
<rect x="20" y="30.9183" width="1.28451" height="19.2676" rx="0.642254" transform="rotate(-90 20 30.9183)" fill="#606877"/>
</svg>
