<svg width="31" height="38" viewBox="0 0 31 38" fill="none" xmlns="http://www.w3.org/2000/svg">
<g clip-path="url(#clip0)">
<path d="M21.396 15.8602H0.834037C0.382743 15.8602 0.0168457 16.245 0.0168457 16.7197V20.7307C0.0168457 21.2054 0.382743 21.5902 0.834037 21.5902H21.396V24.8892C21.396 26.4207 23.1564 27.1877 24.1861 26.1048L30.0467 19.9408C30.685 19.2694 30.685 18.181 30.0467 17.5097L24.1861 11.3457C23.1565 10.2628 21.396 11.0297 21.396 12.5612V15.8602Z" fill="#4D81DE"/>
</g>
<defs>
<clipPath id="clip0">
<rect width="30.5085" height="36.6724" fill="white" transform="translate(0.0168457 0.389038)"/>
</clipPath>
</defs>
</svg>
