<svg width="23" height="23" viewBox="0 0 23 23" fill="none" xmlns="http://www.w3.org/2000/svg">
<path d="M23 6.46875V19.4062C23 20.5967 22.0342 21.5625 20.8438 21.5625H2.15625C0.96582 21.5625 0 20.5967 0 19.4062V6.46875C0 5.27832 0.96582 4.3125 2.15625 4.3125H6.10938L6.66191 2.83457C6.97637 1.99453 7.78047 1.4375 8.67891 1.4375H14.3166C15.215 1.4375 16.0191 1.99453 16.3336 2.83457L16.8906 4.3125H20.8438C22.0342 4.3125 23 5.27832 23 6.46875ZM16.8906 12.9375C16.8906 9.96367 14.4738 7.54688 11.5 7.54688C8.52617 7.54688 6.10938 9.96367 6.10938 12.9375C6.10938 15.9113 8.52617 18.3281 11.5 18.3281C14.4738 18.3281 16.8906 15.9113 16.8906 12.9375ZM15.4531 12.9375C15.4531 15.1162 13.6787 16.8906 11.5 16.8906C9.32129 16.8906 7.54688 15.1162 7.54688 12.9375C7.54688 10.7588 9.32129 8.98438 11.5 8.98438C13.6787 8.98438 15.4531 10.7588 15.4531 12.9375Z" fill="#EEEEEE"/>
</svg>
